{
  "title": "Exam Test Types",
  "model": "CourseExamTestTypes",
  "columns": [
    {
      "name": "id",
      "hidden": true,
      "property": "id"
    },
    {
      "name": "testType/name",
      "property": "name",
      "title": "Exams.TestType"
    },
    {
      "name": "testType/description",
      "property": "description",
      "title": "Exams.Description"
    }
  ]
}
