{
  "title": "Students.Active",
  "model": "Students/Removed",
  "searchExpression": "indexof(studentIdentifier, '${text}') ge 0 or indexof(person/familyName, '${text}') ge 0 or indexof(person/givenName, '${text}') ge 0 or indexof(uniqueIdentifier, '${text}') ge 0",
  "selectable": true,
  "multipleSelect": true,
  "columns": [
    {
      "name": "id",
      "property": "id",
      "hidden": true
    },
    {
      "name": "studentIdentifier",
      "property": "studentIdentifier",
      "title": "Students.studentIdentifier"
    },
    {
      "name": "person/familyName",
      "property": "familyName",
      "title": "Students.fullName",
      "formatter": "TemplateFormatter",
      "formatString": "${familyName} ${givenName}"
    },
    {
      "name": "person/givenName",
      "property": "givenName",
      "title": "Students.GivenName",
      "hidden": true
    },
    {
      "name": "studyProgram/name",
      "property": "studyProgram",
      "title": "Students.studyProgram"
    },
    {
      "name": "semester",
      "property": "semester",
      "title": "Students.semester"
    },
    {
      "name": "inscriptionYear/alternateName",
      "property": "inscriptionYear",
      "title": "Students.inscriptionYear"
    },
    {
      "name": "inscriptionPeriod/alternateName",
      "property": "inscriptionPeriod",
      "title": "Students.inscriptionPeriod",
      "formatter": "TranslationFormatter",
      "formatString": "Periods.${value}"
    },
    {
      "name": "inscriptionMode/name",
      "property": "inscriptionMode",
      "title": "Students.InscriptionMode"
    },
    {
      "name": "inscriptionNumber",
      "property": "inscriptionNumber",
      "title": "Students.InscriptionNumber"
    },
    {
      "name": "studentStatus/alternateName",
      "property": "studentStatus",
      "title": "Students.studentStatus",
      "hidden": true
    },
    {
      "name": "revision_object",
      "title": "Restore.revision_object",
      "hidden": true
    },
    {
      "name": "revision_creator/alternateName",
      "property": "revision_creator",
      "title": "RestoreStudents.DeletedBy"
    },
    {
      "name": "revision_date",
      "property": "revision_date",
      "title": "RestoreStudents.DeletedDate",
      "formatter": "DateTimeFormatter",
      "formatString": "short"
    },
    {
      "name": "revision_tag",
      "property": "revision_tag",
      "title": "RestoreStudents.Restored",
      "formatters": [
        {
          "formatter": "TemplateFormatter",
          "formatString": "${revision_tag==='restored'?'<span class=\"text-center fa fa-check text-success\"></span>':'<span class=\"text-center fa fa-times text-danger\"></span>'}"
        }
      ]
    },
    {
      "name": "dateModified",
      "property": "dateModified",
      "title": "RestoreStudents.DateModified",
      "formatter": "DateTimeFormatter",
      "formatString": "short"
    }
  ],
  "criteria": [
    {
      "name": "studentIdentifier",
      "filter": "(studentIdentifier eq '${value}')",
      "type": "text"
    },
    {
      "name": "studentName",
      "filter": "(indexof(person/familyName, '${value}') ge 0 or indexof(person/givenName, '${value}') ge 0)",
      "type": "text"
    },
    {
      "name": "studyProgram",
      "filter": "(studyProgram eq ${value})",
      "type": "text"
    },
    {
      "name": "inscriptionMode",
      "filter": "(inscriptionMode/id eq '${value}')",
      "type": "text"
    },
    {
      "name": "inscriptionYear",
      "filter": "(inscriptionYear/id eq '${value}')",
      "type": "text"
    },
    {
      "name": "inscriptionNumber",
      "filter": "(inscriptionNumber eq '${value}')",
      "type": "text"
    },
    {
      "name": "inscriptionPeriod",
      "filter": "(inscriptionPeriod/id eq '${value}')",
      "type": "text"
    },
    {
      "name": "semester",
      "filter": "(semester eq '${value}')",
      "type": "text"
    }
  ],
  "defaults": {
    "filter": "(department eq ${currentDepartment})"
  }
}
