{
  "title": "Courses.All",
  "model": "Courses",
  "searchExpression":"(indexof(name, '${text}') ge 0 or indexof(displayCode, '${text}') ge 0 or indexof(department/abbreviation, '${text}') ge 0 or indexof(department/name, '${text}') ge 0 or indexof(courseArea/name, '${text}') ge 0 or indexof(courseCategory/name, '${text}') ge 0)",
  "selectable": true,
  "multipleSelect": true,
  "columns": [
    {
      "name":"id",
      "property": "id",
      "formatter": "ActionLinkFormatter",
      "actions" : [
        {
          "title": "Courses.Preview",
          "href": "#/courses/${encodeURIComponent(id)}/",
          "role": "preview"
        },
        {
          "title": "Courses.Edit",
          "href": "#/courses/${encodeURIComponent(id)}/edit",
          "role": "edit"
        },
        {
          "title": "Courses.ReplaceByCourseAction",
          "href": "#/courses/${encodeURIComponent(id)}/dashboard/overview/(modal:replace)",
          "role": "action"
        },
        {
          "title": "Courses.ReplaceCourseAction",
          "href": "#/courses/${encodeURIComponent(id)}/dashboard/overview/(modal:replaceCourses)",
          "role": "action"
        },
        {
          "title": "Courses.ChangeGradeScaleAction.Title",
          "href": "#/courses/${encodeURIComponent(id)}/dashboard/overview/(modal:change-scale)",
          "role": "action"
        }
      ]
    },
    {
      "name":"displayCode",
      "property": "displayCode",
      "title":"Courses.DisplayCode"
    },
    {
      "name":"name",
      "property": "name",
      "title":"Courses.name"
    },
    {
      "name":"department/abbreviation",
      "property": "departmentName",
      "title":"Courses.Department"
    },
    {
      "name":"courseArea/name",
      "property": "courseArea",
      "title":"Courses.courseArea"
    },
    {
      "name":"courseSector/name",
      "property": "courseSector",
      "title":"Courses.courseSector"
    },
    {
      "name":"courseCategory/name",
      "property": "courseCategory",
      "title":"Courses.courseCategory"
    },
    {
      "name":"courseStructureType",
      "property": "courseStructureType",
      "hidden": true
    }
  ],
  "defaults":{
    "filter": "(department eq ${currentDepartment})"
  },
  "criteria": [
    {
      "name": "name",
      "filter": "(indexof(name, '${value}') ge 0)",
      "type": "text"
    },
    {
      "name": "displayCode",
      "filter": "(indexof(displayCode, '${value}') ge 0)",
      "type": "text"
    },
    {
      "name": "courseStructureType",
      "filter": "(courseStructureType/id eq '${value}')",
      "type": "text"
    },
    {
      "name": "courseSector",
      "filter": "(courseSector/id eq '${value}')",
      "type": "text"
    },
    {
      "name": "courseCategory",
      "filter": "(courseCategory/id eq '${value}')",
      "type": "text"
    },
    {
      "name": "isEnabled",
      "filter": "(isEnabled eq '${value}')",
      "type": "text"
    },
    {
      "name": "instructor",
      "filter": "(instructor/id eq '${value.id}')",
      "type": "text"
    },
    {
      "name": "courseArea",
      "filter": "(courseArea/id eq '${value}')",
      "type": "text"
    }
  ],
  "paths" : [
    {
      "name": "Courses.All",
      "alternateName": "list/index",
      "show": true,
      "filter": {
        "status": "0"
      }
    },
    {
      "name": "Courses.IsEnabledPlural.1",
      "alternateName": "list/activeCourse",
      "show": true,
      "filter": {
        "status": "1"
      }
    },
    {
      "name": "Courses.IsEnabledPlural.0",
      "alternateName": "list/deactiveCourse",
      "show": true,
      "filter": {
        "status": "0"
      }
    }
  ]
}
