{
  "model": "StudentRequestConfigurations",
  "settings": {
    "i18n": {
      "el": {
        "Set the name of this item": "Ορίστε την ονομασία του στοιχείου",
        "Set an alternate name for this item. This name will be used to identify items": "Ορίστε μία εναλλακτική ονομασία για αυτό το στοιχείο. Αυτό το όνομα τα χρησιμοποιηθεί για την ταυτοποίηση του στοιχείου",
        "This field must contain only latin characters or numbers e.g. active, closed etc. A value is required.": "Αυτό το πεδίο πρέπει να περιέχει μόνον λατινικούς χαρακτήρες ή αριθμούς πχ. active, closed κτλ. Το πεδίο είναι υποχρεωτικό.",
        "Write a short description for this item": "Γράψτε μία σύντομη περιγραφή για αυτό το στοιχείο",
        "Set a Language that is going to be used by the element": "Ορίστε τη γλώσσα με την οποία πρόκειται να χρησιμοποιηθεί αυτό το στοιχείο",
        "Set the relative URL which is going to be used to apply for this item": "Ορίστε την σχετική διεύθυνση που μπορεί να χρησιμοποιηθεί για την υποβολή της αίτησης",
        "Set the relative URL which is going to be used to preview item": "Ορίστε την σχετική διεύθυνση που μπορεί να χρησιμοποιηθεί για την προβολή μίας αίτησης",
        "Set the related model of this request type": "Ορίστε το σχετιζόμενο μοντέλο αυτού του τύπου αίτησης",
        "Related model": "Σχετικό μοντέλο",
        "Preview URL": "Διεύθυνση προβολής αίτησης",
        "Apply URL": "Διεύθυνση υποβολής αίτησης"
      }
    }
  },
  "components": [
    {
      "type": "fieldset",
      "legend": "Edit item",
      "components": [
        {
          "label": "HTML",
          "tag": "h5",
          "className": "font-weight-normal",
          "content": "{{form.subtitle}}",
          "refreshOnChange": false,
          "tableView": false,
          "key": "subtitle",
          "type": "htmlelement",
          "input": false
        },
        {
          "columns": [
            {
              "components": [
                {
                  "label": "Name",
                  "labelPosition": "top",
                  "widget": {
                    "type": "input"
                  },
                  "validate": {
                    "required": true
                  },
                  "key": "name",
                  "type": "textfield",
                  "input": true,
                  "disabled": false,
                  "description": "Set the name of this item"
                }
              ],
              "width": 6
            },
            {
              "components": [
                {
                  "label": "AlternateName",
                  "labelPosition": "top",
                  "widget": {
                    "type": "input"
                  },
                  "validate": {
                    "required": true,
                    "pattern": "^[a-zA-Z0-9_+-]+$",
                    "customMessage": "This field must contain only latin characters or numbers. A value is required."
                  },
                  "key": "alternateName",
                  "type": "textfield",
                  "input": true,
                  "description": "Set an alternate name for this item. This name will be used to identify items"
                }
              ],
              "width": 6
            },
            {
              "components": [
                {
                  "label": "Description",
                  "labelPosition": "top",
                  "widget": {
                    "type": "input"
                  },
                  "validate": {
                    "required": false
                  },
                  "key": "description",
                  "type": "textarea",
                  "input": true,
                  "description": "Write a short description for this item"
                }
              ],
              "width": 12
            },
            {
              "components": [
                {
                  "label": "In Language",
                  "labelPosition": "top",
                  "data": {
                    "values": [
                      {
                        "label": "Ελληνικά",
                        "value": "el"
                      },
                      {
                        "label": "English",
                        "value": "en"
                      }
                    ]
                  },
                  "widget": "choicesjs",
                  "validate": {
                    "required": true
                  },
                  "key": "inLanguage",
                  "type": "select",
                  "searchEnabled": false,
                  "input": true,
                  "description": "Set a Language that is going to be used by the element"
                }
              ],
              "width": 6
            },
            {
              "components": [
                {
                  "label": "Category",
                  "labelPosition": "top",
                  "widget": "choicesjs",
                  "dataSrc": "url",
                  "data": {
                    "values": [],
                    "url": "/RequestCategories?$select=id,name",
                    "headers": []
                  },
                  "valueProperty": "id",
                  "lazyLoad": false,
                  "template": "{{ item.name }}",
                  "selectThreshold": 0.3,
                  "key": "category",
                  "type": "select",
                  "selectValues": "value",
                  "input": true,
                  "description": "Set the category of this request type"
                }
              ],
              "width": 6
            },
            {
              "components": [
                {
                  "label": "Apply URL",
                  "labelPosition": "top",
                  "widget": {
                    "type": "input"
                  },
                  "validate": {
                    "required": false
                  },
                  "key": "url",
                  "type": "textfield",
                  "input": true,
                  "description": "Set the relative URL which is going to be used to apply for this item"
                }
              ],
              "width": 6
            },
            {
              "components": [
                {
                  "label": "Preview URL",
                  "labelPosition": "top",
                  "widget": {
                    "type": "input"
                  },
                  "validate": {
                    "required": false
                  },
                  "key": "previewUrl",
                  "type": "textfield",
                  "input": true,
                  "description": "Set the relative URL which is going to be used to preview item"
                }
              ],
              "width": 6
            },
            {
              "components": [
                {
                  "label": "Related model",
                  "labelPosition": "top",
                  "widget": {
                    "type": "input"
                  },
                  "validate": {
                    "required": false
                  },
                  "key": "additionalType",
                  "type": "textfield",
                  "input": true,
                  "disabled": true,
                  "description": "Set the related model of this request type"
                }
              ],
              "width": 6
            }
          ],
          "customClass": "text-dark",
          "hideLabel": true,
          "type": "columns",
          "input": false
        }
      ]
    },
    {
      "type": "button",
      "label": "Submit",
      "key": "submit",
      "disableOnInvalid": true,
      "input": true
    }
  ]
}
