{
  "title": "Candidates.All",
  "model": "StudyProgramEnrollmentEvents",
  "searchExpression": "indexof(name, '${text}') ge 0 or indexof(inscriptionYear/alternateName, '${text}') ge 0 )",
  "selectable": true,
  "multipleSelect": true,
  "columns": [
    {
      "name": "name",
      "property": "title",
      "title": "Candidates.EventTitle"
    },
    {
      "name": "studyProgram/name",
      "property": "studyProgram",
      "title": "Candidates.StudyProgram"
    },
    {
      "name": "inscriptionYear/alternateName",
      "property": "year",
      "title": "Candidates.Year"
    },
    {
      "name": "inscriptionPeriod/alternateName",
      "property": "period",
      "title": "Candidates.Period",
      "formatter": "TranslationFormatter",
      "formatString": "Periods.${value}"
    },

    {
      "name": "validFrom",
      "property": "validFrom",
      "title": "Candidates.RequestPeriodStart",
      "formatter": "DateTimeFormatter",
      "formatString": "shortDate"
    },
    {
      "name": "validThrough",
      "property": "validThrough",
      "title": "Candidates.RequestPeriodEnd",
      "formatter": "DateTimeFormatter",
      "formatString": "shortDate"
    },
    {
      "name": "eventStatus/alternateName",
      "property": "eventStatus",
      "title": "Candidates.Status",
      "formatter": "TranslationFormatter",
      "formatString": "EventStatuses.${value}"
    },
    {
      "name": "identifier",
      "property": "identifier",
      "hidden": true
    },
    {
      "name": "id",
      "formatter": "ButtonFormatter",
      "formatString": "#/enrollment-events/list/opened/(modal:${id}/edit)",
      "className": "text-center",
      "formatOptions": {
        "buttonContent": "<i class=\"far fa-edit text-indigo\"></i>",
        "buttonClass": "btn btn-default"
      }
    },
    {
      "name": "id",
      "virtual" : true,
      "formatter": "ButtonFormatter",
      "formatString": "#/enrollment-events/${id}/dashboard",
      "className": "text-center",
      "formatOptions": {
        "buttonContent": "<i class=\"far fa-eye text-indigo\"></i>",
        "buttonClass": "btn btn-default"
      }
    }
  ],
  "defaults": {
    "filter": "(organizer eq ${currentDepartment})",
    "orderBy": "inscriptionYear desc,inscriptionPeriod desc,name asc"
  },
  "criteria": [
    {
      "name": "title",
      "filter": "(indexof(name, '${value}') ge 0)",
      "type": "text"
    },

    {
      "name": "yearId",
      "filter": "(inscriptionYear/id eq '${value}')",
      "type": "text"
    },
    {
      "name": "period",
      "filter": "(inscriptionPeriod/alternateName eq '${value}')",
      "type": "text"
    },
    {
      "name": "currentYear",
      "filter": "(inscriptionYear eq '${currentYear}')",
      "type": "text"
    },
    {
      "name": "eventStatus",
      "filter": "(eventStatus eq '${value}')",
      "type": "text"
    }
  ],
  "paths": [
    {
      "name": "Candidates.Opened",
      "alternateName": "list/opened",
      "show": true,
      "filter": {
        "eventStatus": "EventOpened"
      }
    },
    {
      "name": "Candidates.All",
      "alternateName": "list/index",
      "show": true,
      "filter": {
      }
    }
  ]
}
