{
  "model": "CourseTypes",

  "components": [{
      "type": "fieldset",
      "legend": "Course Type",

      "components": [{
        "columns": [{
            "components": [{
              "label": "Name",
              "labelPosition": "top",
              "widget": {
                "type": "input"
              },
              "validate": {
                "required": true
              },
              "key": "name",
              "type": "textfield",
              "input": true,
              "disabled": false
            }],
            "width": 6
          },
          {
            "components": [{
              "label": "Abbreviation",
              "labelPosition": "top",
              "widget": {
                "type": "input"
              },
              "validate": {
                "required": true
              },
              "key": "abbreviation",
              "type": "textfield",
              "input": true
            }],
            "width": 6
          }
        ],
        "customClass": "text-dark",
        "hideLabel": true,
        "type": "columns",
        "input": false
      }]
    },
    {
      "type": "button",
      "label": "Submit",
      "key": "submit",
      "disableOnInvalid": true,
      "input": true
    }
  ]
}