{
  "model": "GraduationEvents",
  "display": "wizard",
  "components": [
    {
      "title": "Step 1 of 4",
      "hideLabel": false,
      "label": "Step 1",
      "type": "panel",
      "key": "step1",
      "components": [
        {
          "hideLabel": false,
          "type": "container",
          "label": "Step 1 of 4",
          "labelPosition": "top",
          "components": [
            {
              "label": "Columns",
              "columns": [
                {
                  "components": [
                    {
                      "label": "Graduation Event Title",
                      "placeholder": "Add graduation event title...",
                      "spellcheck": true,
                      "tableView": true,
                      "validate": {
                        "required": true
                      },
                      "key": "name",
                      "type": "textfield",
                      "input": true
                    }
                  ],
                  "width": 8
                }
              ],
              "tableView": false,
              "type": "columns",
              "input": false
            },
            {
              "label": "Columns",
              "columns": [
                {
                  "components": [
                    {
                      "label": "Period",
                      "widget": "choicesjs",
                      "dataSrc": "url",
                      "data": {
                        "url": "AcademicPeriods",
                        "headers": []
                      },
                      "validate": {
                        "required": true
                      },
                      "key": "graduationPeriod",
                      "type": "select",
                      "input": true,
                      "template": "<span class='col-4 text-truncate'>{{ item.name }}</span>",
                      "selectValues": "value"
                    }
                  ],
                  "width": 4
                },
                {
                  "components": [
                    {
                      "label": "Academic Year",
                      "widget": "choicesjs",
                      "dataSrc": "url",
                      "data": {
                        "url": "AcademicYears/?$top=90&$orderby=id desc",
                        "headers": []
                      },
                      "validate": {
                        "required": true
                      },
                      "key": "graduationYear",
                      "type": "select",
                      "template": "<span class='col-4 text-truncate'>{{ item.alternateName }}</span>",
                      "input": true,
                      "lazyLoad": true,
                      "selectValues": "value"
                    }
                  ],
                  "width": 4
                }
              ],
              "tableView": false,
              "type": "columns",
              "input": false
            },
            {
              "label": "Columns",
              "columns": [
                {
                  "components": [
                    {
                      "label": "Course Guides",
                      "dataSrc": "url",
                      "data": {
                        "url": "StudyPrograms/?$filter=department eq {{ data.organizer }}",
                        "headers": []
                      },
                      "template": "<span class='text-truncate'>{{ item.name }}</span>",
                      "selectValues": "value",
                      "refreshOnChange": false,
                      "tableView": false,
                      "key": "studyPrograms",
                      "type": "select",
                      "multiple": true,
                      "input": false
                    }
                  ],
                  "width": 8
                }
              ],
              "tableView": false,
              "type": "columns",
              "input": false
            },
            {
              "label": "Columns",
              "columns": [
                {
                  "components": [],
                  "width": 9
                },
                {
                  "components": [
                    {
                      "label": "Next",
                      "action": "event",
                      "showValidations": true,
                      "block": true,
                      "rightIcon": "fa fa-arrow-right",
                      "theme": "btn-indigo",
                      "tableView": false,
                      "type": "button",
                      "event": "toNextStep",
                      "input": true
                    }
                  ],
                  "width": 3,
                  "push": 0,
                  "pull": 0
                }
              ],
              "tableView": false,
              "type": "columns",
              "input": false
            }
          ],
          "input": false,
          "tableView": false
        }
      ]
    },
    {
      "title": "Step 2 of 4",
      "label": "Step 2",
      "type": "panel",
      "key": "step2",
      "components": [
        {
          "hideLabel": false,
          "type": "container",
          "label": "Step 2 of 4",
          "labelPosition": "top",
          "components": [
            {
              "label": "Columns",
              "columns": [
                {
                  "components": [
                    {
                      "label": "Graduation Date",
                      "format": "dd-MM-yyyy",
                      "tableView": false,
                      "datePicker": {
                        "disableWeekends": false,
                        "disableWeekdays": false
                      },
                      "enableTime": true,
                      "timePicker": {
                        "showMeridian": false
                      },
                      "key": "startDate",
                      "placeholder": "DD/MM/YYYY",
                      "type": "datetime",
                      "input": true,
                      "suffix": "<i ref=\"icon\" class=\"fa fa-calendar\" style=\"\"></i>",
                      "widget": {
                        "type": "calendar",
                        "displayInTimezone": "viewer",
                        "language": "en",
                        "useLocaleSettings": false,
                        "allowInput": true,
                        "mode": "single",
                        "enableTime": false,
                        "noCalendar": false,
                        "format": "dd-MM-yyyy",
                        "hourIncrement": 1,
                        "minuteIncrement": 1,
                        "time_24hr": true,
                        "minDate": null,
                        "disableWeekends": false,
                        "disableWeekdays": false,
                        "maxDate": null
                      }
                    }
                  ],
                  "width": 8
                }
              ],
              "tableView": false,
              "type": "columns",
              "input": false
            },
            {
              "label": "Columns",
              "columns": [
                {
                  "components": [
                    {
                      "label": "Graduation Location",
                      "placeholder": "Add graduation location...",
                      "spellcheck": true,
                      "tableView": true,
                      "key": "location",
                      "type": "select",
                      "input": true,
                      "widget": "choicesjs",
                      "dataSrc": "url",
                      "data": {
                        "url": "Places",
                        "headers": []
                      },
                      "validate": {
                        "required": false
                      },
                      "template": "<span class='col-4 text-truncate'>{{ item.name }}</span>",
                      "selectValues": "value",
                      "searchEnabled": true,
                      "searchFields": ["value.id", "value.name"]
                    }
                  ],
                  "width": 8
                }
              ],
              "tableView": false,
              "type": "columns",
              "input": false
            },
            {
              "label": "Columns",
              "columns": [
                {
                  "components": [
                    {
                      "label": "Capacity of Graduates (optional)",
                      "placeholder": "e.g. 250",
                      "spellcheck": true,
                      "tableView": true,
                      "key": "maximumAttendeeCapacity",
                      "type": "number",
                      "input": true
                    }
                  ],
                  "width": 8
                }
              ],
              "tableView": false,
              "type": "columns",
              "input": false
            },
            {
              "label": "Columns",
              "columns": [
                {
                  "components": [
                    {
                      "label": "Notify if number of announced graduates exceeds event capacity",
                      "tableView": false,
                      "key": "notifyIfExceedingCapacity",
                      "type": "checkbox",
                      "input": true,
                      "defaultValue": false
                    }
                  ],
                  "width": 8
                }
              ],
              "tableView": false,
              "type": "columns",
              "input": false
            },
            {
              "label": "Columns",
              "columns": [
                {
                  "components": [
                    {
                      "label": "Request period start date",
                      "format": "dd-MM-yyyy",
                      "tableView": false,
                      "datePicker": {
                        "disableWeekends": false,
                        "disableWeekdays": false
                      },
                      "validate": {
                        "required": true,
                        "custom": "valid = (input < data['validThrough']) || !data['validThrough']  ? true : false",
                        "customMessage": "Starting date needs to be earlier than ending date"
                      },
                      "enableTime": false,
                      "key": "validFrom",
                      "placeholder": "DD/MM/YYYY",
                      "type": "datetime",
                      "input": true,
                      "suffix": "<i ref=\"icon\" class=\"fa fa-calendar\" style=\"\"></i>",
                      "widget": {
                        "type": "calendar",
                        "displayInTimezone": "viewer",
                        "language": "en",
                        "useLocaleSettings": false,
                        "allowInput": true,
                        "mode": "single",
                        "enableTime": false,
                        "noCalendar": false,
                        "format": "dd-MM-yyyy",
                        "hourIncrement": 1,
                        "minuteIncrement": 1,
                        "time_24hr": false,
                        "minDate": null,
                        "disableWeekends": false,
                        "disableWeekdays": false,
                        "maxDate": null
                      }
                    }
                  ],
                  "width": 4
                },
                {
                  "components": [
                    {
                      "label": "Request period end date",
                      "format": "dd-MM-yyyy",
                      "tableView": false,
                      "datePicker": {
                        "disableWeekends": false,
                        "disableWeekdays": false
                      },
                      "validate": {
                        "required": true,
                        "custom": "valid = (data['validFrom'] < input) || !data['validFrom']  ? true : false",
                        "customMessage": "Ending date needs to be later than starting date"
                      },
                      "enableTime": false,
                      "key": "validThrough",
                      "placeholder": "DD/MM/YYYY",
                      "type": "datetime",
                      "input": true,
                      "suffix": "<i ref=\"icon\" class=\"fa fa-calendar\" style=\"\"></i>",
                      "widget": {
                        "type": "calendar",
                        "displayInTimezone": "viewer",
                        "language": "en",
                        "useLocaleSettings": false,
                        "allowInput": true,
                        "mode": "single",
                        "enableTime": false,
                        "noCalendar": false,
                        "format": "dd-MM-yyyy",
                        "hourIncrement": 1,
                        "minuteIncrement": 1,
                        "time_24hr": false,
                        "minDate": null,
                        "disableWeekends": false,
                        "disableWeekdays": false,
                        "maxDate": null
                      }
                    }
                  ],
                  "width": 4
                }
              ],
              "tableView": false,
              "type": "columns",
              "input": false
            },
            {
              "label": "Notify me 7 days before period deadline",
              "customClass": "checkbox checkbox-indigo",
              "tableView": false,
              "defaultValue": false,
              "calculateServer": false,
              "key": "notifyWeekBeforeRequestPeriodEnds",
              "type": "checkbox",
              "input": true
            },
            {
              "label": "Columns",
              "columns": [
                {
                  "components": [
                    {
                      "label": "Previous",
                      "action": "event",
                      "showValidations": false,
                      "block": true,
                      "leftIcon": "fa fa-arrow-left",
                      "theme": "btn-secondary",
                      "tableView": false,
                      "type": "button",
                      "event": "toPreviousStep",
                      "input": true
                    }
                  ],
                  "width": 3
                },
                {
                  "components": [],
                  "width": 6
                },
                {
                  "components": [
                    {
                      "label": "Next",
                      "action": "event",
                      "showValidations": true,
                      "block": true,
                      "rightIcon": "fa fa-arrow-right",
                      "theme": "btn-indigo",
                      "tableView": false,
                      "type": "button",
                      "event": "toNextStep",
                      "input": true
                    }
                  ],
                  "width": 3,
                  "push": 0,
                  "pull": 0
                }
              ],
              "tableView": false,
              "type": "columns",
              "input": false
            }
          ],
          "input": false,
          "tableView": false
        }
      ]
    },
    {
      "title": "Step 3 of 4",
      "label": "Step 3",
      "type": "panel",
      "key": "page3",
      "components": [
        {
          "hideLabel": false,
          "type": "container",
          "label": "Step 3 of 4",
          "labelPosition": "top",
          "components": [
            {
              "label": "Documents to be submitted",
              "dataSrc": "url",
              "data": {
                "url": "AttachmentTypes",
                "headers": []
              },
              "template": "<span class='text-truncate'>{{ item.name }}</span>",
              "selectValues": "value",
              "refreshOnChange": false,
              "tableView": false,
              "type": "select",
              "multiple": true,
              "input": false,
              "key": "attachmentTypes"
            },
            {
              "label": "Columns",
              "columns": [
                {
                  "components": [
                    {
                      "label": "Document submission period start date",
                      "format": "dd-MM-yyyy",
                      "tableView": false,
                      "datePicker": {
                        "disableWeekends": false,
                        "disableWeekdays": false
                      },
                      "enableTime": false,
                      "validate": {
                        "required": false,
                        "custom": "valid = (input < data['documentSubmissionPeriodEnd']) || !data['documentSubmissionPeriodEnd']  ? true : false",
                        "customMessage": "Starting date needs to be set earlier than ending date"
                      },
                      "key": "documentSubmissionPeriodStart",
                      "placeholder": "DD/MM/YYYY",
                      "type": "datetime",
                      "input": true,
                      "disabled": true,
                      "suffix": "<i ref=\"icon\" class=\"fa fa-calendar\" style=\"\"></i>",
                      "widget": {
                        "type": "calendar",
                        "displayInTimezone": "viewer",
                        "language": "en",
                        "useLocaleSettings": false,
                        "allowInput": true,
                        "mode": "single",
                        "enableTime": false,
                        "noCalendar": false,
                        "format": "dd-MM-yyyy",
                        "hourIncrement": 1,
                        "minuteIncrement": 1,
                        "time_24hr": false,
                        "minDate": null,
                        "disableWeekends": false,
                        "disableWeekdays": false,
                        "maxDate": null
                      }
                    }
                  ],
                  "width": 4
                },
                {
                  "components": [
                    {
                      "label": "Document submission period end date",
                      "format": "dd-MM-yyyy",
                      "tableView": false,
                      "datePicker": {
                        "disableWeekends": false,
                        "disableWeekdays": false
                      },
                      "enableTime": false,
                      "validate": {
                        "required": false,
                        "custom": "valid = (data['documentSubmissionPeriodStart'] < input) || !data['documentSubmissionPeriodStart']  ? true : false",
                        "customMessage": "Ending date needs to be set later than starting date"
                      },
                      "key": "documentSubmissionPeriodEnd",
                      "placeholder": "DD/MM/YYYY",
                      "type": "datetime",
                      "input": true,
                      "disabled": true,
                      "suffix": "<i ref=\"icon\" class=\"fa fa-calendar\" style=\"\"></i>",
                      "widget": {
                        "type": "calendar",
                        "displayInTimezone": "viewer",
                        "language": "en",
                        "useLocaleSettings": false,
                        "allowInput": true,
                        "mode": "single",
                        "enableTime": false,
                        "noCalendar": false,
                        "format": "dd-MM-yyyy",
                        "hourIncrement": 1,
                        "minuteIncrement": 1,
                        "time_24hr": false,
                        "minDate": null,
                        "disableWeekends": false,
                        "disableWeekdays": false,
                        "maxDate": null
                      }
                    }
                  ],
                  "width": 4
                }
              ],
              "tableView": false,
              "type": "columns",
              "input": false
            },
            {
              "label": "Notify me 7 days before period deadline",
              "customClass": "checkbox checkbox-indigo",
              "tableView": false,
              "defaultValue": false,
              "calculateServer": false,
              "key": "notifyWeekBeforeDocumentSubmissionPeriodEnds",
              "type": "checkbox",
              "input": true
            },
            {
              "label": "Columns",
              "columns": [
                {
                  "components": [
                    {
                      "label": "Previous",
                      "action": "event",
                      "showValidations": false,
                      "block": true,
                      "leftIcon": "fa fa-arrow-left",
                      "theme": "btn-secondary",
                      "tableView": false,
                      "type": "button",
                      "event": "toPreviousStep",
                      "input": true
                    }
                  ],
                  "width": 3
                },
                {
                  "components": [],
                  "width": 6
                },
                {
                  "components": [
                    {
                      "label": "Next",
                      "action": "event",
                      "showValidations": true,
                      "block": true,
                      "rightIcon": "fa fa-arrow-right",
                      "theme": "btn-indigo",
                      "tableView": false,
                      "type": "button",
                      "event": "toNextStep",
                      "input": true
                    }
                  ],
                  "width": 3,
                  "push": 0,
                  "pull": 0
                }
              ],
              "tableView": false,
              "type": "columns",
              "input": false
            }
          ],
          "input": false,
          "tableView": false
        }
      ]
    },
    {
      "title": "Step 4 of 4",
      "label": "Step 4",
      "type": "panel",
      "key": "page4",
      "components": [
        {
          "hideLabel": false,
          "type": "container",
          "label": "Step 4 of 4",
          "labelPosition": "top",
          "components": [
            {
              "label": "Automatic request for graduate certificates",
              "dataSrc": "url",
              "data": {
                "url": "ReportTemplates",
                "headers": []
              },
              "template": "<span class='text-truncate'>{{ item.name }}</span>",
              "selectValues": "value",
              "refreshOnChange": false,
              "tableView": false,
              "type": "select",
              "multiple": true,
              "input": false,
              "key": "reportTemplates"
            },
            {
              "label": "HTML",
              "tag": "div",
              "content": "<div class=\"mb-4\"><span class=\"text-info fa fa-info-circle mr-2\"></span>\n<span class=\"font-lg\">\n  Οι αιτήσεις πιστοποιητικών θα καταχωρηθούν αυτόματα για κάθε πτυχιούχο\n</span></div>",
              "refreshOnChange": false,
              "tableView": false,
              "key": "html",
              "type": "htmlelement",
              "input": false
            },
            {
              "label": "Columns",
              "columns": [
                {
                  "components": [
                    {
                      "label": "Previous",
                      "action": "event",
                      "showValidations": false,
                      "block": true,
                      "leftIcon": "fa fa-arrow-left",
                      "theme": "btn-secondary",
                      "tableView": false,
                      "type": "button",
                      "event": "toPreviousStep",
                      "input": true
                    }
                  ],
                  "width": 3
                },
                {
                  "components": [],
                  "width": 6
                },
                {
                  "components": [
                    {
                      "label": "Create Graduation Event",
                      "showValidations": false,
                      "block": true,
                      "theme": "btn-indigo",
                      "tableView": false,
                      "type": "button",
                      "input": true
                    }
                  ],
                  "width": 3,
                  "push": 0,
                  "pull": 0
                }
              ],
              "tableView": false,
              "type": "columns",
              "input": false
            }
          ],
          "input": false,
          "tableView": false
        }
      ]
    }
  ],
  "breadcrumb": "none",
  "buttonSettings": {
    "showPrevious": false,
    "showCancel": false,
    "showNext": false
  },
  "collapsible": false
}
